MATERIAL {
  ID              22                            ; Material to replace [0 - 26]
  Name            "Roller"                        ; Display name

  Skid            false                          ; Skidmarks appear on material
  Spark           true                          ; Material emits particles
  OutOfBounds     false                         ; Not implemented
  Corrugated      false                          ; Material is bumpy
  Moves           false                         ; Moves like museum conveyors
  Dusty           false                         ; Material emits dust

  Roughness       0.800000                      ; Roughness of the material
  Grip            0.800000                      ; Grip of the material
  Hardness        0.400000                      ; Hardness of the material

  DefaultSound   89 
  SkidSound       6                             ; Sound when skidding
  ScrapeSound     5                             ; Car body scrape [5:Normal]

  SkidColor       80 80 80                      ; Color of the skidmarks
  CorrugationType 3                             ; Type of bumpiness [0 - 7]
  DustType        0                             ; Type of dust
  Velocity        0.000000 0.000000 0.000000    ; Move cars
}

MATERIAL {
  ID              12                            ; Material to replace [0 - 26]
  Name            "GRASS"                       ; Display name

  Skid            true                         ; Skidmarks appear on material
  Spark           false                         ; Material emits particles
  OutOfBounds     false                         ; Not implemented
  Corrugated      true                          ; Material is bumpy
  Moves           false                         ; Moves like museum conveyors
  Dusty           false                          ; Material emits dust

  Roughness       1.000000                      ; Roughness of the material
  Grip            1.000000                      ; Grip of the material
  Hardness        1.000000                      ; Hardness of the material

  SkidSound       7                             ; Sound when skidding
  ScrapeSound     5                             ; Car body scrape [5:Normal]

  SkidColor       207 186 104                   ; Color of the skidmarks
  CorrugationType 3                             ; Type of bumpiness [0 - 7]
  DustType        3                             ; Type of dust
  Velocity        0.000000 0.000000 0.000000    ; Move cars
}

;___________________________________________________________________________

SPARK {
  ID              3                            ; Particle to replace [0 - 30]
  Name            "SMOKE4"                      ; Display name

  CollideWorld    false                         ; Collision with the world
  CollideObject   true                          ; Collision with objects
  CollideCam      false                         ; Collision with camera
  HasTrail        false                         ; Particle has a trail
  FieldAffect     false                         ; Is affected by force fields
  Spins           true                          ; Particle spins
  Grows           true                          ; Particle grows
  Additive        true                          ; Draw particle additively
  Horizontal      false                         ; Draw particle flat

  Size            120.000000 120.000000             ; Size of the particle
  UV              0.000000 0.000000             ; Top left UV coordinates
  UVSize          0.250000 0.250000             ; Width and height of UV
  TexturePage     47                            ; Texture page
  Color           32 32 32                      ; Color of the particle

  Mass            0.030000                      ; Mass of the particle
  Resistance      0.000000                      ; Air resistance
  Friction        0.000000                      ; Sliding friction
  Restitution     0.000000                      ; Bounciness

  LifeTime        1.500000                      ; Maximum life time
  LifeTimeVar     0.100000                      ; Life time variance

  SpinRate        0.000000                      ; Avg. spin rate (radians/sec)
  SpinRateVar     6.000000                      ; Variation of the spin rate

  SizeVar         2.000000                      ; Size variation
  GrowRate        0.000000                      ; How quickly it grows
  GrowRateVar     36.000000                     ; Grow variation

  TrailType       -1                            ; ID of the trail to use
}


SPARK {
  ID              8                             ; Particle to replace [0 - 30]
  Name            "WATER2"                       ; Display name

  CollideWorld    true                          ; Collision with the world
  CollideObject   false                          ; Collision with objects
  CollideCam      false                          ; Collision with camera
  HasTrail        false                         ; Particle has a trail
  FieldAffect     true                          ; Is affected by force fields
  Spins           false                         ; Particle spins
  Grows           false                         ; Particle grows
  Additive        true                          ; Draw particle additively
  Horizontal      false                         ; Draw particle flat

  Size            25.000000 25.000000           ; Size of the particle
  UV              0.750000 0.062500             ; Top left UV coordinates
  UVSize          0.062500 0.062500             ; Width and height of UV
  TexturePage     47                            ; Texture page
  Color           154 188 211                     ; Color of the particle

  Mass            5                      ; Mass of the particle
  Resistance      0.001000                      ; Air resistance
  Friction        0.800000                      ; Sliding friction
  Restitution     0.200000                      ; Bounciness

  LifeTime        0.200000                      ; Maximum life time
  LifeTimeVar     0.100000                      ; Life time variance

  SpinRate        0.000000                      ; Avg. spin rate (radians/sec)
  SpinRateVar     0.000000                      ; Variation of the spin rate

  SizeVar         0.000000                      ; Size variation
  GrowRate        0.000000                      ; How quickly it grows
  GrowRateVar     0.000000                      ; Grow variation

  TrailType       -1                            ; ID of the trail to use
}


;___________________________________________________________________


SPARK {
  ID              4                             
  Name            "GRAVEL"                      

  CollideWorld    true                          
  CollideObject   true                          
  CollideCam      true                          
  HasTrail        false                         
  FieldAffect     true                         
  Spins           false                        
  Grows           false                       
  Additive        false                     
  Horizontal      false                      

  Size            6.00000 6.00000            
  UV              0.517921 0.751165           
  UVSize          0.039766 0.039766           
  TexturePage     48                          
  Color           128 124 125                  

  Mass            0.100000                      
  Resistance      0.060000                      
  Friction        0.700000                      
  Restitution     0.200000                      

  LifeTime        1.500000                      
  LifeTimeVar     0.500000                     

  SpinRate        0.000000                     
  SpinRateVar     25.000000                   

  SizeVar         0.000000                    
  GrowRate        0.000000                     
  GrowRateVar     0.000000                     

  TrailType       -1                           
}

SPARK {
  ID              6                             
  Name            "GRASS"                       

  CollideWorld    true                          
  CollideObject   true                          
  CollideCam      false                         
  HasTrail        false                         
  FieldAffect     true                          
  Spins           true                          
  Grows           false                        
  Additive        false                         
  Horizontal      false                         

  Size            8.000000 8.000000             
  UV              0.506299 0.684851             
  UVSize          0.05605 0.05605             
  TexturePage     48                            
  Color           255 255 255                   

  Mass            0.100000                      
  Resistance      0.020000                      
  Friction        1.000000                      
  Restitution     0.500000                      

  LifeTime        1.000000                      
  LifeTimeVar     0.300000                      

  SpinRate        0.000000                      
  SpinRateVar     15.000000                    

  SizeVar         0.000000                      
  GrowRate        0.000000                      
  GrowRateVar     0.000000                     

  TrailType       -1                            
}


SPARK {
  ID              2                             
  Name            "Bubbles"                        

  CollideWorld    false                        
  CollideObject   true                       
  CollideCam      false                         
  HasTrail        false                         
  FieldAffect     true                          
  Spins           false                        
  Grows           false                         
  Additive        false                        
  Horizontal      false                        

  Size            10.000000 10.000000         
  UV              0.575278 0.752498            
  UVSize          0.118 0.118             
  TexturePage     48                            
  Color           255 255 255                   


  Mass            0.030000                      
  Resistance      0.090000                      
  Friction        0.001000                     
  Restitution     0.000000                     


  LifeTime        24.000000                      
  LifeTimeVar     0.300000                      

  SpinRate        0.000000                     
  SpinRateVar     0.000000                      

  SizeVar         10.900000                      
  GrowRate        50.000000                     
  GrowRateVar     20.000000                   

  TrailType       -1                           
}

SPARK {
  ID              7                             ; Particle to replace [0 - 30]
  Name            "BUMPERCAR"                    ; Display name

  CollideWorld    true                          ; Collision with the world
  CollideObject   true                          ; Collision with objects
  CollideCam      true                          ; Collision with camera
  HasTrail        true                         ; Particle has a trail
  FieldAffect     true                          ; Is affected by force fields
  Spins           false                         ; Particle spins
  Grows           false                         ; Particle grows
  Additive        true                          ; Draw particle additively
  Horizontal      false                         ; Draw particle flat

  Size            3.000000 3.000000             ; Size of the particle
  UV              0.875000 0.062500             ; Top left UV coordinates
  UVSize          0.062500 0.062500             ; Width and height of UV
  TexturePage     47                            ; Texture page
  Color           192 192 225                   ; Color of the particle

  Mass            0.100000                      ; Mass of the particle
  Resistance      0.020000                      ; Air resistance
  Friction        0.100000                      ; Sliding friction
  Restitution     0.500000                      ; Bounciness

  LifeTime        0.200000                      ; Maximum life time
  LifeTimeVar     0.050000                      ; Life time variance

  SpinRate        0.000000                      ; Avg. spin rate (radians/sec)
  SpinRateVar     0.000000                      ; Variation of the spin rate

  SizeVar         0.000000                      ; Size variation
  GrowRate        0.000000                      ; How quickly it grows
  GrowRateVar     0.000000                      ; Grow variation

  TrailType       1                             ; ID of the trail to use
}