{
    PICKUPS {
      SpawnCount      99 0
    }
	
	MATERIAL {
	  ID              3
	  Name            "BUMPY INDOOR DRY"
	  Skid            false
	  Spark           false
	  Corrugated      true
	  Moves           false
	  Dusty           false
	  Roughness       1
	  Grip            0.9
	  Hardness        1
	  SkidSound       6
	  ScrapeSound     5
	  CorrugationType 4
	}

	MATERIAL {
	  ID              12
	  Name            "GRASS WET"
	  Skid            true
	  Spark           false
	  Corrugated      true
	  Moves           false
	  Dusty           true
	  Roughness       0.8
	  Grip            0.8
	  Hardness        0.5
	  SkidSound       7
	  ScrapeSound     5
	  SkidColor       100 100 100
	  CorrugationType 1
	  DustType        3
	}

	MATERIAL {
	  ID              13
	  Name            "DRAINAGE SLIPPERY"
	  Skid            false
	  Spark           false
	  Corrugated      true 
	  Moves           false
	  Dusty           true 
	  Roughness       1
	  Grip            0.4
	  Hardness        0.5
	  SkidSound       6
	  ScrapeSound     5
	  CorrugationType 3
	  DustType        1
	}

	MATERIAL {
	  ID              15
	  Name            "TILING OUTDOOR WET"
	  Skid            true
	  Spark           false
	  Corrugated      true
	  Moves           false
	  Dusty           true
	  Roughness       1
	  Grip            0.9
	  Hardness        1
	  SkidSound       6
	  ScrapeSound     5
	  SkidColor       200 200 200
	  CorrugationType 2
	  DustType        1
	}

	MATERIAL {
	  ID              19
	  Name            "LEAVES"
	  Skid            true
	  Spark           false
	  Corrugated      true
	  Moves           false
	  Dusty           true
	  Roughness       0.8
	  Grip            0.8
	  Hardness        0.9
	  SkidSound       7
	  ScrapeSound     5
	  SkidColor       100 100 100
	  CorrugationType 1
	  DustType        4
	}

	MATERIAL {
	  ID              21
	  Name            "PUDDLES SLIPPERY"
	  Skid            false
	  Spark           false
	  Corrugated      true
	  Moves           false
	  Dusty           true
	  Roughness       0.6
	  Grip            0.5
	  Hardness        1
	  SkidSound       6
	  ScrapeSound     5
	  CorrugationType 2
	  DustType        2
	}

	CORRUGATION {
	  ID              1
	  Name            "GRASS"
	  Amplitude       2
	  Wavelength      50 50
	}

	CORRUGATION {
	  ID              2
	  Name            "TILING OUTDOOR"
	  Amplitude       1
	  Wavelength      50 50
	}

	CORRUGATION {
	  ID              3
	  Name            "DRAINAGE"
	  Amplitude       4
	  Wavelength      5 5
	}

	CORRUGATION {
	  ID              4
	  Name            "BUMPY INDOOR"
	  Amplitude       1
	  Wavelength      50 50
	}

	DUST {
	  ID              1
	  Name            "TILING OUTDOOR"
	  SparkType       28
	  ParticleChance  5
	  ParticleRandom  0
	  SmokeType       30
	  SmokeChance     1
	  SmokeRandom     0.1
	}

	DUST {
	  ID              2
	  Name            "PUDDLES"
	  SparkType       30
	  ParticleChance  9
	  ParticleRandom  0.1
	  SmokeType       29
	  SmokeChance     5
	  SmokeRandom     0
	}

	DUST {
	  ID              3
	  Name            "GRASS"
	  SparkType       27
	  ParticleChance  8
	  ParticleRandom  0.6
	  SmokeType       30
	  SmokeChance     8
	  SmokeRandom     0.5
	}

	DUST {
	  ID              4
	  Name            "LEAVES"
	  SparkType       26
	  ParticleChance  0.05
	  ParticleRandom  0
	  SmokeType       28
	  SmokeChance     5
	  SmokeRandom     0.5
	}

	SPARK {
	  ID              3
	  Name            "SOFT STEAM"
	  CollideWorld    false
	  CollideObject   false
	  CollideCam      false
	  HasTrail        false
	  FieldAffect     false
	  Spins           true
	  Grows           true
	  Additive        true
	  Horizontal      false
	  Size            400 400
	  UV              0 0
	  UVSize          0.25 0.25
	  TexturePage     47
	  Color           20 20 20
	  Mass            0.01
	  Resistance      0.0001
	  Friction        0.001
	  Restitution     0.5
	  LifeTime        0.8
	  LifeTimeVar     0.5
	  SpinRate        1
	  SpinRateVar     0
	  SizeVar         10
	  GrowRate        30
	  GrowRateVar     0
	}
	
	SPARK {
	  ID              4
	  Name            "STEAM WHIRLPOOL IN"
	  CollideWorld    true
	  CollideObject   false
	  CollideCam      false
	  HasTrail        false
	  FieldAffect     false
	  Spins           true
	  Grows           true
	  Additive        true
	  Horizontal      false
	  Size            1000 1000
	  UV              0 0
	  UVSize          0.25 0.25
	  TexturePage     47
	  Color           25 25 25
	  Mass            0.0003
	  Resistance      0.002
	  Friction        0
	  Restitution     0
	  LifeTime        3
	  LifeTimeVar     0.2
	  SpinRate        0.5
	  SpinRateVar     5
	  SizeVar         10
	  GrowRate        1
	  GrowRateVar     1
	}
	
	SPARK {
	  ID              9
	  Name            "POOL SHOWERS"
	  CollideWorld    true
	  CollideObject   true
	  CollideCam      false
	  HasTrail        false
	  FieldAffect     false
	  Spins           true
	  Grows           true
	  Additive        true
	  Horizontal      false
	  Size            160 160
	  UV              0 0
	  UVSize          0.25 0.25
	  TexturePage     47
	  Color           96 96 96
	  Mass            0.003
	  Resistance      0.02
	  Friction        0.001
	  Restitution     0
	  LifeTime        0.8
	  LifeTimeVar     0
	  SpinRate        0
	  SpinRateVar     6
	  SizeVar         0
	  GrowRate        40
	  GrowRateVar     20
	}
	
	SPARK {
	  ID              23
	  Name            "FOUNTAIN 1"
	  CollideWorld    false
	  CollideObject   false
	  CollideCam      false
	  HasTrail        false
	  FieldAffect     true
	  Spins           true
	  Grows           true
	  Additive        true
	  Horizontal      false
	  Size            3 3
	  UV              0.75 0.0625
	  UVSize          0.0625 0.0625
	  TexturePage     47
	  Color           68 51 221
	  Mass            0.003
	  Resistance      0.0005
	  Friction        0.9
	  Restitution     0.2
	  LifeTime        1.3
	  LifeTimeVar     0
	  SpinRate        1
	  SpinRateVar     0
	  SizeVar         0
	  GrowRate        8
	  GrowRateVar     8
	  TrailType       -1
	}

	SPARK {
	  ID              24
	  Name            "FOUNTAIN 2"
	  CollideWorld    false
	  CollideObject   false
	  CollideCam      false
	  HasTrail        false
	  FieldAffect     true
	  Spins           true
	  Grows           true
	  Additive        true
	  Horizontal      false
	  Size            10 10
	  UV              0.75 0.0625
	  UVSize          0.0625 0.0625
	  TexturePage     47
	  Color           58 41 211
	  Mass            0.003
	  Resistance      0.0005
	  Friction        0.9
	  Restitution     0.2
	  LifeTime        1.3
	  LifeTimeVar     0
	  SpinRate        0
	  SpinRateVar     6
	  SizeVar         0
	  GrowRate        96
	  GrowRateVar     88
	}

	SPARK {
	  ID              26
	  Name            "LEAVES"
	  CollideWorld    true
	  CollideObject   false
	  CollideCam      false
	  HasTrail        false
	  FieldAffect     false
	  Spins           true
	  Grows           false
	  Additive        true
	  Horizontal      false
	  Size            15 15
	  UV              0.25 0.5
	  UVSize          0.25 0.25
	  TexturePage     47
	  Color           150 150 150
	  Mass            0.1
	  Resistance      0.1
	  Friction        0
	  Restitution     0.5
	  LifeTime        1.5
	  LifeTimeVar     0
	  SpinRate        5
	  SpinRateVar     5
	  SizeVar         20
	  GrowRate        0
	  GrowRateVar     0
	}
	
	SPARK {
	  ID              27
	  Name            "GRASS PARTICLES"
	  CollideWorld    true
	  CollideObject   true
	  CollideCam      false
	  HasTrail        false
	  FieldAffect     true
	  Spins           true
	  Grows           false
	  Additive        false
	  Horizontal      false
	  Size            10 10
	  UV              0.8125 0
	  UVSize          0.0625 0.0625
	  TexturePage     47
	  Color           20 100 20
	  Mass            0.1
	  Resistance      0.02
	  Friction        1
	  Restitution     0.5
	  LifeTime        0.5
	  LifeTimeVar     0.3
	  SpinRate        0
	  SpinRateVar     10
	  SizeVar         1
	  GrowRate        0
	  GrowRateVar     0
	}
	
	SPARK {
	  ID              28
	  Name            "OUTDOOR WATERDROPS"
	  CollideWorld    false
	  CollideObject   false
	  CollideCam      false
	  HasTrail        false
	  FieldAffect     false
	  Spins           true
	  Grows           true
	  Additive        true
	  Horizontal      false
	  Size            10 10
	  UV              0 0.5
	  UVSize          0.25 0.25
	  TexturePage     47
	  Color           80 80 80
	  Mass            0.05
	  Resistance      0.002
	  Friction        0
	  Restitution     0
	  LifeTime        0.3
	  LifeTimeVar     0
	  SpinRate        80
	  SpinRateVar     10
	  SizeVar         10
	  GrowRate        0
	  GrowRateVar     36
	}
	
	SPARK {
	  ID              29
	  Name            "PUDDLES WATERDROPS"
	  CollideWorld    false
	  CollideObject   false
	  CollideCam      false
	  HasTrail        false
	  FieldAffect     false
	  Spins           true
	  Grows           true
	  Additive        true
	  Horizontal      false
	  Size            30 30
	  UV              0 0.5
	  UVSize          0.25 0.25
	  TexturePage     47
	  Color           150 150 150
	  Mass            0.05
	  Resistance      0.002
	  Friction        0
	  Restitution     0
	  LifeTime        0.3
	  LifeTimeVar     0
	  SpinRate        80
	  SpinRateVar     10
	  SizeVar         10
	  GrowRate        0
	  GrowRateVar     36
	}

	SPARK {
	  ID              30
	  Name            "DUST"
	  CollideWorld    true
	  CollideObject   true
	  CollideCam      false
	  HasTrail        false
	  FieldAffect     false
	  Spins           true
	  Grows           true
	  Additive        true
	  Horizontal      false
	  Size            20 20
	  UV              0 0
	  UVSize          0.25 0.25
	  TexturePage     47
	  Color           10 10 10
	  Mass            0.03
	  Resistance      0.002
	  Friction        0
	  Restitution     0
	  LifeTime        0.5
	  LifeTimeVar     0.1
	  SpinRate        0
	  SpinRateVar     6
	  SizeVar         2
	  GrowRate        0
	  GrowRateVar     36
	}
}